%YAML 1.1
%TAG !u! tag:unity3d.com,2011:
--- !u!1045 &1
EditorBuildSettings:
  m_ObjectHideFlags: 0
  serializedVersion: 2
  m_Scenes:
  - enabled: 1
    path: Assets/Scenes/Launcher.unity
    guid: 9fc0d4010bbf28b4594072e72b8655ab
  - enabled: 1
    path: Assets/Scenes/Room for 1.unity
    guid: 6c96e196a00dfe84287e9dda13280cc2
  - enabled: 1
    path: Assets/Scenes/Room for 2.unity
    guid: 78ec7062fba4e6344a3d66a84e56820f
  - enabled: 1
    path: Assets/Scenes/Room for 3.unity
    guid: 5eef94c53e439a1469fae4586d4f52f2
  - enabled: 1
    path: Assets/Scenes/Room for 4.unity
    guid: cf3b73ec7c0c6524bad2b61fd74e62f7
  m_configObjects: {}
